<svg width="36" height="36" viewBox="0 0 36 36" fill="none" xmlns="http://www.w3.org/2000/svg">
<path fill-rule="evenodd" clip-rule="evenodd" d="M32.51 27.83C31.5457 26.9703 30.7014 25.9848 30 24.9C29.2342 23.4025 28.7752 21.7672 28.65 20.09V15.15C28.6637 9.69912 24.6169 5.09079 19.21 4.39999V3.10999C19.21 2.37269 18.6123 1.77499 17.875 1.77499C17.1377 1.77499 16.54 2.37269 16.54 3.10999V4.41999C11.1843 5.1602 7.19909 9.7434 7.20999 15.15V20.09C7.08474 21.7672 6.62577 23.4025 5.85999 24.9C5.17087 25.9823 4.34018 26.9677 3.38999 27.83C3.1742 28.0196 3.05035 28.2928 3.04999 28.58V29.94C3.04999 30.4923 3.4977 30.94 4.04999 30.94H31.85C32.1152 30.94 32.3696 30.8346 32.5571 30.6471C32.7446 30.4596 32.85 30.2052 32.85 29.94V28.58C32.8496 28.2928 32.7258 28.0196 32.51 27.83ZM5.12999 28.94C6.0604 28.0412 6.87959 27.034 7.56999 25.94C8.5346 24.1315 9.09742 22.136 9.21999 20.09V15.15C9.112 11.9588 10.7529 8.96268 13.4999 7.33509C16.247 5.7075 19.663 5.7075 22.4101 7.33509C25.1571 8.96268 26.798 11.9588 26.69 15.15V20.09C26.8126 22.136 27.3754 24.1315 28.34 25.94C29.0304 27.034 29.8496 28.0412 30.78 28.94H5.12999ZM20.58 32C20.3903 33.2871 19.3006 34.25 18 34.28C16.6614 34.2993 15.5154 33.3244 15.32 32H20.58Z" fill="#737373"/>
</svg>
